Châpitre 4 Résultats | Projet Approches spatiales et temporelles des données
…
            Projet Approches spatiales et temporelles des données

Châpitre 4 Résultats

Some significant applications are demonstrated in this chapter.

L’article 55 de la loi SRU de 2002 vise à promouvoir la mixité sociale en imposant un seuil de logements sociaux (20 %, passé en 2013 à 25 %) aux communes des grandes agglomérations. Une étude dans le département des Yvelines montre que les villes déficitaires en logement social s’accommodent finalement bien de ces objectifs mais que la mixité sociale n’est toujours pas au rendez-vous.

df <- FiltrerZone(cheminFichierCSV = Filosofi2015_carreaux_200m_metropole, depcom = '44109')
save(df,file = 'data/carreaux_insee_nantes.RData')
df

# A tibble: 1,141 x 40
   IdINSPIRE Id_carr1km I_est_cr Id_carr_n Groupe Depcom I_pauv Id_car2010   Ind
   <chr>     <chr>         <int> <chr>      <int> <chr>   <int> <chr>      <dbl>
 1 CRS3035R~ CRS3035RE~        0 CRS3035R~ 721418 44109       0 CRS3035RE~  240.
 2 CRS3035R~ CRS3035RE~        0 CRS3035R~ 721415 44109       0 CRS3035RE~  274 
 3 CRS3035R~ CRS3035RE~        0 CRS3035R~ 721479 44109       0 CRS3035RE~  174 
 4 CRS3035R~ CRS3035RE~        0 CRS3035R~ 721523 44109       0 CRS3035RE~  246.
 5 CRS3035R~ CRS3035RE~        0 CRS3035R~ 721525 44109       0 CRS3035RE~  362.
 6 CRS3035R~ CRS3035RE~        0 CRS3035R~ 721416 44109       0 CRS3035RE~  254.
 7 CRS3035R~ CRS3035RE~        0 CRS3035R~ 721524 44109       0 CRS3035RE~  267 
 8 CRS3035R~ CRS3035RE~        0 CRS3035R~ 721628 44109       0 CRS3035RE~  221 
 9 CRS3035R~ CRS3035RE~        0 CRS3035R~ 721536 44109       0 CRS3035RE~  453 
10 CRS3035R~ CRS3035RE~        0 CRS3035R~ 728192 44109       0 CRS3035RE~   94 
# ... with 1,131 more rows, and 31 more variables: Men <dbl>, Men_pauv <dbl>,
#   Men_1ind <dbl>, Men_5ind <dbl>, Men_prop <dbl>, Men_fmp <dbl>,
#   Ind_snv <dbl>, Men_surf <dbl>, Men_coll <dbl>, Men_mais <dbl>,
#   Log_av45 <dbl>, Log_45_70 <dbl>, Log_70_90 <dbl>, Log_ap90 <dbl>,
#   Log_inc <dbl>, Log_soc <dbl>, Ind_0_3 <dbl>, Ind_4_5 <dbl>, Ind_6_10 <dbl>,
#   Ind_11_17 <dbl>, Ind_18_24 <dbl>, Ind_25_39 <dbl>, Ind_40_54 <dbl>,
#   Ind_55_64 <dbl>, Ind_65_79 <dbl>, Ind_80p <dbl>, Ind_inc <dbl>,
#   I_est_1km <int>, x <int>, y <int>, geometry <POLYGON [m]>

rpls_2019_nantes <- fread('extdata/rpls_geoloc_2019/RPLS2019_detail_reg52.csv') %>% 
  filter(DEPCOM == '44109')
save(rpls_2019_nantes,file = 'data/rpls_2019_nantes.RData')

rpls_2019_nantes

# A tibble: 36,097 x 74
   DROIT DEPCOM CODEPOSTAL LIBCOM NUMVOIE INDREP TYPVOIE NOMVOIE NUMAPPT
   <int>  <int>      <int> <chr>  <chr>   <chr>  <chr>   <chr>   <chr>  
 1     1  44109      44000 Nantes ""      ""     ""      23 BLD~ 111    
 2     1  44109      44000 Nantes ""      ""     ""      23 BLD~ 112    
 3     1  44109      44000 Nantes ""      ""     ""      23 BLD~ 121    
 4     1  44109      44000 Nantes ""      ""     ""      23 BLD~ 122    
 5     1  44109      44000 Nantes ""      ""     ""      23 BLD~ 131    
 6     1  44109      44000 Nantes ""      ""     ""      23 BLD~ 132    
 7     1  44109      44000 Nantes ""      ""     ""      23 BLD~ 141    
 8     1  44109      44000 Nantes ""      ""     ""      23 BLD~ 142    
 9     1  44109      44000 Nantes ""      ""     ""      25 BLD~ 211    
10     1  44109      44000 Nantes ""      ""     ""      25 BLD~ 212    
# ... with 36,087 more rows, and 65 more variables: NUMBOITE <chr>, ESC <chr>,
#   COULOIR <chr>, ETAGE <chr>, COMPLIDENT <chr>, ENTREE <chr>, BAT <chr>,
#   IMMEU <chr>, COMPLGEO <chr>, LIEUDIT <chr>, QPV <int>, TYPECONST <chr>,
#   NBPIECE <int>, SURFHAB <int>, CONSTRUCT <int>, LOCAT <int>,
#   PATRIMOINE <int>, ORIGINE <int>, FINAN <int>, FINANAUTRE <chr>, CONV <int>,
#   NUMCONV <chr>, DATCONV <chr>, NEWLOGT <int>, CUS <int>, DPEDATE <chr>,
#   DPEENERGIE <chr>, DPESERRE <chr>, SRU_EXPIR <int>, SRU_ALINEA <int>,
#   CODSEGPATRIM <chr>, LIBSEGPATRIM <chr>, PMR <int>, REG <int>, LIBREG <chr>,
#   DEP <int>, LIBDEP <chr>, EPCI <chr>, LIBEPCI <chr>, EPSG <int>, X <chr>,
…
